<svg width="32" height="32" viewBox="0 0 32 32" fill="none" xmlns="http://www.w3.org/2000/svg">
<path fill-rule="evenodd" clip-rule="evenodd" d="M8.45943 11.0491C5.75943 12.2491 2.95943 13.4491 0.459426 14.8491C-0.840574 15.8491 0.859432 16.5491 2.55943 17.1491C2.85943 17.2491 3.05943 17.3491 3.35943 17.4491C3.55943 17.5491 3.75943 17.5491 3.95943 17.6491C5.75943 18.2491 7.85943 18.8491 9.65943 17.9491C12.5594 16.2491 15.3594 14.3491 18.1594 12.3491C19.0594 11.7491 19.9594 11.0491 20.8594 10.4491L20.9594 10.3491C22.1594 9.44915 23.3594 9.64915 22.1594 10.9491C20.6594 12.6491 19.6594 13.4491 18.0594 14.9491C16.9594 15.9491 15.8594 16.9491 14.7594 18.0491C13.8594 18.8491 12.8594 20.3491 13.8594 21.4491C16.2594 23.1491 18.7594 24.8491 21.2594 26.5491C22.0594 27.0491 22.8594 27.6491 23.6594 28.1491C25.0594 29.2491 27.1594 28.3491 27.4594 26.6491C27.5594 25.8491 27.7594 25.0491 27.8594 24.2491C28.5594 19.9491 29.3594 15.5491 29.9594 11.2491C30.0594 10.5491 30.1594 9.84915 30.2594 9.24915C30.4594 7.54915 30.7594 5.94915 30.8594 4.24915C30.6594 2.54915 28.6594 2.94915 27.5594 3.34915C21.7594 5.54915 16.0594 7.84915 10.4594 10.2491C9.75943 10.4491 9.15943 10.7491 8.45943 11.0491Z" fill="white"/>
</svg>
